^C:\USERS\TUNGDZ\DOCUMENTS\VISUAL STUDIO 2015\PROJECTS\CREATESAMPLES\CREATESAMPLES\X64\DEBUG\SOURCE.OBJ
C:\WINDOWS\GLOBALIZATION\SORTING\SORTDEFAULT.NLS
E:\OPENCV-3.4\BUILD123\INSTALL\X64\VC14\LIB\OPENCV_ARUCO341D.LIB
E:\OPENCV-3.4\BUILD123\INSTALL\X64\VC14\LIB\OPENCV_BGSEGM341D.LIB
E:\OPENCV-3.4\BUILD123\INSTALL\X64\VC14\LIB\OPENCV_BIOINSPIRED341D.LIB
E:\OPENCV-3.4\BUILD123\INSTALL\X64\VC14\LIB\OPENCV_CALIB3D341D.LIB
E:\OPENCV-3.4\BUILD123\INSTALL\X64\VC14\LIB\OPENCV_CCALIB341D.LIB
E:\OPENCV-3.4\BUILD123\INSTALL\X64\VC14\LIB\OPENCV_CORE341D.LIB
E:\OPENCV-3.4\BUILD123\INSTALL\X64\VC14\LIB\OPENCV_DATASETS341D.LIB
E:\OPENCV-3.4\BUILD123\INSTALL\X64\VC14\LIB\OPENCV_DNN_OBJDETECT341D.LIB
E:\OPENCV-3.4\BUILD123\INSTALL\X64\VC14\LIB\OPENCV_DNN341D.LIB
E:\OPENCV-3.4\BUILD123\INSTALL\X64\VC14\LIB\OPENCV_DPM341D.LIB
E:\OPENCV-3.4\BUILD123\INSTALL\X64\VC14\LIB\OPENCV_FACE341D.LIB
E:\OPENCV-3.4\BUILD123\INSTALL\X64\VC14\LIB\OPENCV_FEATURES2D341D.LIB
E:\OPENCV-3.4\BUILD123\INSTALL\X64\VC14\LIB\OPENCV_FLANN341D.LIB
E:\OPENCV-3.4\BUILD123\INSTALL\X64\VC14\LIB\OPENCV_FUZZY341D.LIB
E:\OPENCV-3.4\BUILD123\INSTALL\X64\VC14\LIB\OPENCV_HFS341D.LIB
E:\OPENCV-3.4\BUILD123\INSTALL\X64\VC14\LIB\OPENCV_HIGHGUI341D.LIB
E:\OPENCV-3.4\BUILD123\INSTALL\X64\VC14\LIB\OPENCV_IMG_HASH341D.LIB
E:\OPENCV-3.4\BUILD123\INSTALL\X64\VC14\LIB\OPENCV_IMGCODECS341D.LIB
E:\OPENCV-3.4\BUILD123\INSTALL\X64\VC14\LIB\OPENCV_IMGPROC341D.LIB
E:\OPENCV-3.4\BUILD123\INSTALL\X64\VC14\LIB\OPENCV_LINE_DESCRIPTOR341D.LIB
E:\OPENCV-3.4\BUILD123\INSTALL\X64\VC14\LIB\OPENCV_ML341D.LIB
E:\OPENCV-3.4\BUILD123\INSTALL\X64\VC14\LIB\OPENCV_OBJDETECT341D.LIB
E:\OPENCV-3.4\BUILD123\INSTALL\X64\VC14\LIB\OPENCV_OPTFLOW341D.LIB
E:\OPENCV-3.4\BUILD123\INSTALL\X64\VC14\LIB\OPENCV_PLOT341D.LIB
E:\OPENCV-3.4\BUILD123\INSTALL\X64\VC14\LIB\OPENCV_PHASE_UNWRAPPING341D.LIB
E:\OPENCV-3.4\BUILD123\INSTALL\X64\VC14\LIB\OPENCV_PHOTO341D.LIB
E:\OPENCV-3.4\BUILD123\INSTALL\X64\VC14\LIB\OPENCV_REG341D.LIB
E:\OPENCV-3.4\BUILD123\INSTALL\X64\VC14\LIB\OPENCV_RGBD341D.LIB
E:\OPENCV-3.4\BUILD123\INSTALL\X64\VC14\LIB\OPENCV_SALIENCY341D.LIB
E:\OPENCV-3.4\BUILD123\INSTALL\X64\VC14\LIB\OPENCV_SHAPE341D.LIB
E:\OPENCV-3.4\BUILD123\INSTALL\X64\VC14\LIB\OPENCV_STEREO341D.LIB
E:\OPENCV-3.4\BUILD123\INSTALL\X64\VC14\LIB\OPENCV_STITCHING341D.LIB
E:\OPENCV-3.4\BUILD123\INSTALL\X64\VC14\LIB\OPENCV_STRUCTURED_LIGHT341D.LIB
E:\OPENCV-3.4\BUILD123\INSTALL\X64\VC14\LIB\OPENCV_SUPERRES341D.LIB
E:\OPENCV-3.4\BUILD123\INSTALL\X64\VC14\LIB\OPENCV_SURFACE_MATCHING341D.LIB
E:\OPENCV-3.4\BUILD123\INSTALL\X64\VC14\LIB\OPENCV_TEXT341D.LIB
E:\OPENCV-3.4\BUILD123\INSTALL\X64\VC14\LIB\OPENCV_TRACKING341D.LIB
E:\OPENCV-3.4\BUILD123\INSTALL\X64\VC14\LIB\OPENCV_VIDEO341D.LIB
E:\OPENCV-3.4\BUILD123\INSTALL\X64\VC14\LIB\OPENCV_VIDEOIO341D.LIB
E:\OPENCV-3.4\BUILD123\INSTALL\X64\VC14\LIB\OPENCV_VIDEOSTAB341D.LIB
E:\OPENCV-3.4\BUILD123\INSTALL\X64\VC14\LIB\OPENCV_XFEATURES2D341D.LIB
E:\OPENCV-3.4\BUILD123\INSTALL\X64\VC14\LIB\OPENCV_XIMGPROC341D.LIB
E:\OPENCV-3.4\BUILD123\INSTALL\X64\VC14\LIB\OPENCV_XOBJDETECT341D.LIB
E:\OPENCV-3.4\BUILD123\INSTALL\X64\VC14\LIB\OPENCV_XPHOTO341D.LIB
C:\PROGRAM FILES (X86)\WINDOWS KITS\8.1\LIB\WINV6.3\UM\X64\KERNEL32.LIB
C:\PROGRAM FILES (X86)\WINDOWS KITS\8.1\LIB\WINV6.3\UM\X64\USER32.LIB
C:\PROGRAM FILES (X86)\WINDOWS KITS\8.1\LIB\WINV6.3\UM\X64\GDI32.LIB
C:\PROGRAM FILES (X86)\WINDOWS KITS\8.1\LIB\WINV6.3\UM\X64\WINSPOOL.LIB
C:\PROGRAM FILES (X86)\WINDOWS KITS\8.1\LIB\WINV6.3\UM\X64\COMDLG32.LIB
C:\PROGRAM FILES (X86)\WINDOWS KITS\8.1\LIB\WINV6.3\UM\X64\ADVAPI32.LIB
C:\PROGRAM FILES (X86)\WINDOWS KITS\8.1\LIB\WINV6.3\UM\X64\SHELL32.LIB
C:\PROGRAM FILES (X86)\WINDOWS KITS\8.1\LIB\WINV6.3\UM\X64\OLE32.LIB
C:\PROGRAM FILES (X86)\WINDOWS KITS\8.1\LIB\WINV6.3\UM\X64\OLEAUT32.LIB
C:\PROGRAM FILES (X86)\WINDOWS KITS\8.1\LIB\WINV6.3\UM\X64\UUID.LIB
C:\PROGRAM FILES (X86)\WINDOWS KITS\8.1\LIB\WINV6.3\UM\X64\ODBC32.LIB
C:\PROGRAM FILES (X86)\WINDOWS KITS\8.1\LIB\WINV6.3\UM\X64\ODBCCP32.LIB
C:\USERS\TUNGDZ\DOCUMENTS\VISUAL STUDIO 2015\PROJECTS\CREATESAMPLES\CREATESAMPLES\X64\DEBUG\SOURCE.OBJ
C:\WINDOWS\SYSTEM32\TZRES.DLL
D:\VISUAL STUDIO 2015\VC\LIB\AMD64\MSVCPRTD.LIB
D:\VISUAL STUDIO 2015\VC\LIB\AMD64\MSVCRTD.LIB
D:\VISUAL STUDIO 2015\VC\LIB\AMD64\OLDNAMES.LIB
D:\VISUAL STUDIO 2015\VC\LIB\AMD64\VCRUNTIMED.LIB
C:\PROGRAM FILES (X86)\WINDOWS KITS\10\LIB\10.0.10240.0\UCRT\X64\UCRTD.LIB
D:\VISUAL STUDIO 2015\VC\BIN\X86_AMD64\LINK.EXE
C:\WINDOWS\SYSTEM32\RSAENH.DLL
C:\PROGRAM FILES (X86)\WINDOWS KITS\8.1\BIN\X86\RC.EXE
D:\VISUAL STUDIO 2015\VC\BIN\CVTRES.EXE
