^C:\USERS\TUNGDZ\DOCUMENTS\VISUAL STUDIO 2015\PROJECTS\YOLO_DNN\YOLO_DNN\SOURCE.CPP
C:\WINDOWS\GLOBALIZATION\SORTING\SORTDEFAULT.NLS
D:\VISUAL STUDIO 2015\VC\BIN\X86_AMD64\1033\CLUI.DLL
C:\WINDOWS\SYSTEM32\RSAENH.DLL
D:\VISUAL STUDIO 2015\VC\BIN\MSPDBSRV.EXE
C:\WINDOWS\SYSTEM32\TZRES.DLL
E:\OPENCV-3.4\BUILD123\INSTALL\INCLUDE\OPENCV2\DNN.HPP
E:\OPENCV-3.4\BUILD123\INSTALL\INCLUDE\OPENCV2\DNN\DNN.HPP
D:\VISUAL STUDIO 2015\VC\INCLUDE\VECTOR
D:\VISUAL STUDIO 2015\VC\INCLUDE\XMEMORY
D:\VISUAL STUDIO 2015\VC\INCLUDE\XMEMORY0
D:\VISUAL STUDIO 2015\VC\INCLUDE\CSTDINT
D:\VISUAL STUDIO 2015\VC\INCLUDE\YVALS.H
D:\VISUAL STUDIO 2015\VC\INCLUDE\XKEYCHECK.H
D:\VISUAL STUDIO 2015\VC\INCLUDE\CRTDEFS.H
D:\VISUAL STUDIO 2015\VC\INCLUDE\VCRUNTIME.H
D:\VISUAL STUDIO 2015\VC\INCLUDE\SAL.H
D:\VISUAL STUDIO 2015\VC\INCLUDE\CONCURRENCYSAL.H
D:\VISUAL STUDIO 2015\VC\INCLUDE\VADEFS.H
C:\PROGRAM FILES (X86)\WINDOWS KITS\10\INCLUDE\10.0.10240.0\UCRT\CORECRT.H
D:\VISUAL STUDIO 2015\VC\INCLUDE\USE_ANSI.H
D:\VISUAL STUDIO 2015\VC\INCLUDE\STDINT.H
D:\VISUAL STUDIO 2015\VC\INCLUDE\CSTDLIB
C:\PROGRAM FILES (X86)\WINDOWS KITS\10\INCLUDE\10.0.10240.0\UCRT\STDLIB.H
C:\PROGRAM FILES (X86)\WINDOWS KITS\10\INCLUDE\10.0.10240.0\UCRT\CORECRT_MALLOC.H
C:\PROGRAM FILES (X86)\WINDOWS KITS\10\INCLUDE\10.0.10240.0\UCRT\CORECRT_SEARCH.H
C:\PROGRAM FILES (X86)\WINDOWS KITS\10\INCLUDE\10.0.10240.0\UCRT\STDDEF.H
C:\PROGRAM FILES (X86)\WINDOWS KITS\10\INCLUDE\10.0.10240.0\UCRT\CORECRT_WSTDLIB.H
D:\VISUAL STUDIO 2015\VC\INCLUDE\LIMITS.H
D:\VISUAL STUDIO 2015\VC\INCLUDE\LIMITS
D:\VISUAL STUDIO 2015\VC\INCLUDE\YMATH.H
D:\VISUAL STUDIO 2015\VC\INCLUDE\CFLOAT
C:\PROGRAM FILES (X86)\WINDOWS KITS\10\INCLUDE\10.0.10240.0\UCRT\FLOAT.H
D:\VISUAL STUDIO 2015\VC\INCLUDE\CLIMITS
D:\VISUAL STUDIO 2015\VC\INCLUDE\CMATH
C:\PROGRAM FILES (X86)\WINDOWS KITS\10\INCLUDE\10.0.10240.0\UCRT\MATH.H
D:\VISUAL STUDIO 2015\VC\INCLUDE\XTGMATH.H
D:\VISUAL STUDIO 2015\VC\INCLUDE\XTR1COMMON
D:\VISUAL STUDIO 2015\VC\INCLUDE\CWCHAR
C:\PROGRAM FILES (X86)\WINDOWS KITS\10\INCLUDE\10.0.10240.0\UCRT\WCHAR.H
C:\PROGRAM FILES (X86)\WINDOWS KITS\10\INCLUDE\10.0.10240.0\UCRT\CORECRT_MEMCPY_S.H
C:\PROGRAM FILES (X86)\WINDOWS KITS\10\INCLUDE\10.0.10240.0\UCRT\ERRNO.H
D:\VISUAL STUDIO 2015\VC\INCLUDE\VCRUNTIME_STRING.H
C:\PROGRAM FILES (X86)\WINDOWS KITS\10\INCLUDE\10.0.10240.0\UCRT\CORECRT_WCONIO.H
C:\PROGRAM FILES (X86)\WINDOWS KITS\10\INCLUDE\10.0.10240.0\UCRT\CORECRT_STDIO_CONFIG.H
C:\PROGRAM FILES (X86)\WINDOWS KITS\10\INCLUDE\10.0.10240.0\UCRT\CORECRT_WCTYPE.H
C:\PROGRAM FILES (X86)\WINDOWS KITS\10\INCLUDE\10.0.10240.0\UCRT\CORECRT_WDIRECT.H
C:\PROGRAM FILES (X86)\WINDOWS KITS\10\INCLUDE\10.0.10240.0\UCRT\CORECRT_WIO.H
C:\PROGRAM FILES (X86)\WINDOWS KITS\10\INCLUDE\10.0.10240.0\UCRT\CORECRT_SHARE.H
C:\PROGRAM FILES (X86)\WINDOWS KITS\10\INCLUDE\10.0.10240.0\UCRT\CORECRT_WPROCESS.H
C:\PROGRAM FILES (X86)\WINDOWS KITS\10\INCLUDE\10.0.10240.0\UCRT\CORECRT_WSTDIO.H
C:\PROGRAM FILES (X86)\WINDOWS KITS\10\INCLUDE\10.0.10240.0\UCRT\CORECRT_WSTRING.H
C:\PROGRAM FILES (X86)\WINDOWS KITS\10\INCLUDE\10.0.10240.0\UCRT\CORECRT_WTIME.H
C:\PROGRAM FILES (X86)\WINDOWS KITS\10\INCLUDE\10.0.10240.0\UCRT\SYS\STAT.H
C:\PROGRAM FILES (X86)\WINDOWS KITS\10\INCLUDE\10.0.10240.0\UCRT\SYS\TYPES.H
D:\VISUAL STUDIO 2015\VC\INCLUDE\XSTDDEF
D:\VISUAL STUDIO 2015\VC\INCLUDE\CSTDDEF
D:\VISUAL STUDIO 2015\VC\INCLUDE\INITIALIZER_LIST
D:\VISUAL STUDIO 2015\VC\INCLUDE\NEW
D:\VISUAL STUDIO 2015\VC\INCLUDE\EXCEPTION
D:\VISUAL STUDIO 2015\VC\INCLUDE\TYPE_TRAITS
C:\PROGRAM FILES (X86)\WINDOWS KITS\10\INCLUDE\10.0.10240.0\UCRT\MALLOC.H
D:\VISUAL STUDIO 2015\VC\INCLUDE\VCRUNTIME_EXCEPTION.H
D:\VISUAL STUDIO 2015\VC\INCLUDE\EH.H
C:\PROGRAM FILES (X86)\WINDOWS KITS\10\INCLUDE\10.0.10240.0\UCRT\CORECRT_TERMINATE.H
D:\VISUAL STUDIO 2015\VC\INCLUDE\VCRUNTIME_NEW.H
D:\VISUAL STUDIO 2015\VC\INCLUDE\XUTILITY
D:\VISUAL STUDIO 2015\VC\INCLUDE\UTILITY
D:\VISUAL STUDIO 2015\VC\INCLUDE\IOSFWD
D:\VISUAL STUDIO 2015\VC\INCLUDE\CSTDIO
C:\PROGRAM FILES (X86)\WINDOWS KITS\10\INCLUDE\10.0.10240.0\UCRT\STDIO.H
D:\VISUAL STUDIO 2015\VC\INCLUDE\CSTRING
C:\PROGRAM FILES (X86)\WINDOWS KITS\10\INCLUDE\10.0.10240.0\UCRT\STRING.H
C:\PROGRAM FILES (X86)\WINDOWS KITS\10\INCLUDE\10.0.10240.0\UCRT\CORECRT_MEMORY.H
C:\PROGRAM FILES (X86)\WINDOWS KITS\10\INCLUDE\10.0.10240.0\UCRT\CRTDBG.H
D:\VISUAL STUDIO 2015\VC\INCLUDE\VCRUNTIME_NEW_DEBUG.H
D:\VISUAL STUDIO 2015\VC\INCLUDE\XATOMIC0.H
D:\VISUAL STUDIO 2015\VC\INCLUDE\INTRIN.H
D:\VISUAL STUDIO 2015\VC\INCLUDE\SETJMP.H
D:\VISUAL STUDIO 2015\VC\INCLUDE\IMMINTRIN.H
D:\VISUAL STUDIO 2015\VC\INCLUDE\WMMINTRIN.H
D:\VISUAL STUDIO 2015\VC\INCLUDE\NMMINTRIN.H
D:\VISUAL STUDIO 2015\VC\INCLUDE\SMMINTRIN.H
D:\VISUAL STUDIO 2015\VC\INCLUDE\TMMINTRIN.H
D:\VISUAL STUDIO 2015\VC\INCLUDE\PMMINTRIN.H
D:\VISUAL STUDIO 2015\VC\INCLUDE\EMMINTRIN.H
D:\VISUAL STUDIO 2015\VC\INCLUDE\XMMINTRIN.H
D:\VISUAL STUDIO 2015\VC\INCLUDE\MMINTRIN.H
D:\VISUAL STUDIO 2015\VC\INCLUDE\AMMINTRIN.H
D:\VISUAL STUDIO 2015\VC\INCLUDE\STDEXCEPT
D:\VISUAL STUDIO 2015\VC\INCLUDE\XSTRING
E:\OPENCV-3.4\BUILD123\INSTALL\INCLUDE\OPENCV2\CORE.HPP
E:\OPENCV-3.4\BUILD123\INSTALL\INCLUDE\OPENCV2\CORE\CVDEF.H
E:\OPENCV-3.4\BUILD123\INSTALL\INCLUDE\OPENCV2\CORE\HAL\INTERFACE.H
E:\OPENCV-3.4\BUILD123\INSTALL\INCLUDE\OPENCV2\CORE\CV_CPU_DISPATCH.H
D:\VISUAL STUDIO 2015\VC\INCLUDE\ARRAY
D:\VISUAL STUDIO 2015\VC\INCLUDE\ALGORITHM
D:\VISUAL STUDIO 2015\VC\INCLUDE\ITERATOR
D:\VISUAL STUDIO 2015\VC\INCLUDE\ISTREAM
D:\VISUAL STUDIO 2015\VC\INCLUDE\OSTREAM
D:\VISUAL STUDIO 2015\VC\INCLUDE\IOS
D:\VISUAL STUDIO 2015\VC\INCLUDE\XLOCNUM
D:\VISUAL STUDIO 2015\VC\INCLUDE\STREAMBUF
D:\VISUAL STUDIO 2015\VC\INCLUDE\XIOSBASE
D:\VISUAL STUDIO 2015\VC\INCLUDE\XLOCALE
D:\VISUAL STUDIO 2015\VC\INCLUDE\TYPEINFO
D:\VISUAL STUDIO 2015\VC\INCLUDE\VCRUNTIME_TYPEINFO.H
D:\VISUAL STUDIO 2015\VC\INCLUDE\XLOCINFO
D:\VISUAL STUDIO 2015\VC\INCLUDE\XLOCINFO.H
C:\PROGRAM FILES (X86)\WINDOWS KITS\10\INCLUDE\10.0.10240.0\UCRT\CTYPE.H
C:\PROGRAM FILES (X86)\WINDOWS KITS\10\INCLUDE\10.0.10240.0\UCRT\LOCALE.H
D:\VISUAL STUDIO 2015\VC\INCLUDE\XFACET
D:\VISUAL STUDIO 2015\VC\INCLUDE\SYSTEM_ERROR
D:\VISUAL STUDIO 2015\VC\INCLUDE\CERRNO
C:\PROGRAM FILES (X86)\WINDOWS KITS\10\INCLUDE\10.0.10240.0\UCRT\SHARE.H
D:\VISUAL STUDIO 2015\VC\INCLUDE\TUPLE
E:\OPENCV-3.4\BUILD123\INSTALL\INCLUDE\OPENCV2\CORE\VERSION.HPP
E:\OPENCV-3.4\BUILD123\INSTALL\INCLUDE\OPENCV2\CORE\BASE.HPP
E:\OPENCV-3.4\BUILD123\INSTALL\INCLUDE\OPENCV2\OPENCV_MODULES.HPP
E:\OPENCV-3.4\BUILD123\INSTALL\INCLUDE\OPENCV2\CORE\CVSTD.HPP
D:\VISUAL STUDIO 2015\VC\INCLUDE\CCTYPE
D:\VISUAL STUDIO 2015\VC\INCLUDE\STRING
E:\OPENCV-3.4\BUILD123\INSTALL\INCLUDE\OPENCV2\CORE\PTR.INL.HPP
E:\OPENCV-3.4\BUILD123\INSTALL\INCLUDE\OPENCV2\CORE\NEON_UTILS.HPP
E:\OPENCV-3.4\BUILD123\INSTALL\INCLUDE\OPENCV2\CORE\VSX_UTILS.HPP
C:\PROGRAM FILES (X86)\WINDOWS KITS\10\INCLUDE\10.0.10240.0\UCRT\ASSERT.H
E:\OPENCV-3.4\BUILD123\INSTALL\INCLUDE\OPENCV2\CORE\TRAITS.HPP
E:\OPENCV-3.4\BUILD123\INSTALL\INCLUDE\OPENCV2\CORE\MATX.HPP
E:\OPENCV-3.4\BUILD123\INSTALL\INCLUDE\OPENCV2\CORE\SATURATE.HPP
E:\OPENCV-3.4\BUILD123\INSTALL\INCLUDE\OPENCV2\CORE\FAST_MATH.HPP
E:\OPENCV-3.4\BUILD123\INSTALL\INCLUDE\OPENCV2\CORE\TYPES.HPP
E:\OPENCV-3.4\BUILD123\INSTALL\INCLUDE\OPENCV2\CORE\MAT.HPP
E:\OPENCV-3.4\BUILD123\INSTALL\INCLUDE\OPENCV2\CORE\BUFFERPOOL.HPP
E:\OPENCV-3.4\BUILD123\INSTALL\INCLUDE\OPENCV2\CORE\MAT.INL.HPP
E:\OPENCV-3.4\BUILD123\INSTALL\INCLUDE\OPENCV2\CORE\PERSISTENCE.HPP
E:\OPENCV-3.4\BUILD123\INSTALL\INCLUDE\OPENCV2\CORE\OPERATIONS.HPP
E:\OPENCV-3.4\BUILD123\INSTALL\INCLUDE\OPENCV2\CORE\CVSTD.INL.HPP
D:\VISUAL STUDIO 2015\VC\INCLUDE\COMPLEX
D:\VISUAL STUDIO 2015\VC\INCLUDE\CCOMPLEX
D:\VISUAL STUDIO 2015\VC\INCLUDE\SSTREAM
D:\VISUAL STUDIO 2015\VC\INCLUDE\XCOMPLEX
E:\OPENCV-3.4\BUILD123\INSTALL\INCLUDE\OPENCV2\CORE\UTILITY.HPP
D:\VISUAL STUDIO 2015\VC\INCLUDE\FUNCTIONAL
D:\VISUAL STUDIO 2015\VC\INCLUDE\XFUNCTIONAL
E:\OPENCV-3.4\BUILD123\INSTALL\INCLUDE\OPENCV2\CORE\CORE_C.H
E:\OPENCV-3.4\BUILD123\INSTALL\INCLUDE\OPENCV2\CORE\TYPES_C.H
E:\OPENCV-3.4\BUILD123\INSTALL\INCLUDE\OPENCV2\CORE\OPTIM.HPP
E:\OPENCV-3.4\BUILD123\INSTALL\INCLUDE\OPENCV2\CORE\OVX.HPP
E:\OPENCV-3.4\BUILD123\INSTALL\INCLUDE\OPENCV2\DNN\DICT.HPP
D:\VISUAL STUDIO 2015\VC\INCLUDE\MAP
D:\VISUAL STUDIO 2015\VC\INCLUDE\XTREE
E:\OPENCV-3.4\BUILD123\INSTALL\INCLUDE\OPENCV2\DNN\LAYER.HPP
E:\OPENCV-3.4\BUILD123\INSTALL\INCLUDE\OPENCV2\DNN\DNN.INL.HPP
E:\OPENCV-3.4\BUILD123\INSTALL\INCLUDE\OPENCV2\DNN\SHAPE_UTILS.HPP
E:\OPENCV-3.4\BUILD123\INSTALL\INCLUDE\OPENCV2\IMGPROC.HPP
E:\OPENCV-3.4\BUILD123\INSTALL\INCLUDE\OPENCV2\IMGPROC\IMGPROC_C.H
E:\OPENCV-3.4\BUILD123\INSTALL\INCLUDE\OPENCV2\IMGPROC\TYPES_C.H
E:\OPENCV-3.4\BUILD123\INSTALL\INCLUDE\OPENCV2\HIGHGUI.HPP
E:\OPENCV-3.4\BUILD123\INSTALL\INCLUDE\OPENCV2\IMGCODECS.HPP
E:\OPENCV-3.4\BUILD123\INSTALL\INCLUDE\OPENCV2\VIDEOIO.HPP
E:\OPENCV-3.4\BUILD123\INSTALL\INCLUDE\OPENCV2\HIGHGUI\HIGHGUI_C.H
E:\OPENCV-3.4\BUILD123\INSTALL\INCLUDE\OPENCV2\IMGCODECS\IMGCODECS_C.H
E:\OPENCV-3.4\BUILD123\INSTALL\INCLUDE\OPENCV2\VIDEOIO\VIDEOIO_C.H
D:\VISUAL STUDIO 2015\VC\INCLUDE\FSTREAM
D:\VISUAL STUDIO 2015\VC\INCLUDE\IOSTREAM
