^C:\USERS\TUNGDZ\DOCUMENTS\VISUAL STUDIO 2015\PROJECTS\IMAGE_SUBTRACTION\IMAGE_SUBTRACTION\X64\DEBUG\BLOB.OBJ|C:\USERS\TUNGDZ\DOCUMENTS\VISUAL STUDIO 2015\PROJECTS\IMAGE_SUBTRACTION\IMAGE_SUBTRACTION\X64\DEBUG\MAIN.OBJ
C:\WINDOWS\GLOBALIZATION\SORTING\SORTDEFAULT.NLS
C:\OPENCV_3.0\OPENCV\BUILD\X64\VC14\LIB\OPENCV_WORLD320D.LIB
C:\PROGRAM FILES (X86)\WINDOWS KITS\8.1\LIB\WINV6.3\UM\X64\KERNEL32.LIB
C:\PROGRAM FILES (X86)\WINDOWS KITS\8.1\LIB\WINV6.3\UM\X64\USER32.LIB
C:\PROGRAM FILES (X86)\WINDOWS KITS\8.1\LIB\WINV6.3\UM\X64\GDI32.LIB
C:\PROGRAM FILES (X86)\WINDOWS KITS\8.1\LIB\WINV6.3\UM\X64\WINSPOOL.LIB
C:\PROGRAM FILES (X86)\WINDOWS KITS\8.1\LIB\WINV6.3\UM\X64\COMDLG32.LIB
C:\PROGRAM FILES (X86)\WINDOWS KITS\8.1\LIB\WINV6.3\UM\X64\ADVAPI32.LIB
C:\PROGRAM FILES (X86)\WINDOWS KITS\8.1\LIB\WINV6.3\UM\X64\SHELL32.LIB
C:\PROGRAM FILES (X86)\WINDOWS KITS\8.1\LIB\WINV6.3\UM\X64\OLE32.LIB
C:\PROGRAM FILES (X86)\WINDOWS KITS\8.1\LIB\WINV6.3\UM\X64\OLEAUT32.LIB
C:\PROGRAM FILES (X86)\WINDOWS KITS\8.1\LIB\WINV6.3\UM\X64\UUID.LIB
C:\PROGRAM FILES (X86)\WINDOWS KITS\8.1\LIB\WINV6.3\UM\X64\ODBC32.LIB
C:\PROGRAM FILES (X86)\WINDOWS KITS\8.1\LIB\WINV6.3\UM\X64\ODBCCP32.LIB
C:\USERS\TUNGDZ\DOCUMENTS\VISUAL STUDIO 2015\PROJECTS\IMAGE_SUBTRACTION\IMAGE_SUBTRACTION\X64\DEBUG\BLOB.OBJ
C:\USERS\TUNGDZ\DOCUMENTS\VISUAL STUDIO 2015\PROJECTS\IMAGE_SUBTRACTION\IMAGE_SUBTRACTION\X64\DEBUG\MAIN.OBJ
D:\VISUAL STUDIO 2015\VC\LIB\AMD64\MSVCPRTD.LIB
D:\VISUAL STUDIO 2015\VC\LIB\AMD64\MSVCRTD.LIB
D:\VISUAL STUDIO 2015\VC\LIB\AMD64\OLDNAMES.LIB
D:\VISUAL STUDIO 2015\VC\LIB\AMD64\VCRUNTIMED.LIB
C:\PROGRAM FILES (X86)\WINDOWS KITS\10\LIB\10.0.10240.0\UCRT\X64\UCRTD.LIB
C:\PROGRAM FILES (X86)\WINDOWS KITS\8.1\BIN\X86\RC.EXE
D:\VISUAL STUDIO 2015\VC\BIN\CVTRES.EXE
C:\WINDOWS\SYSTEM32\TZRES.DLL
C:\WINDOWS\SYSTEM32\RSAENH.DLL
