^c:\Users\TungDZ\documents\visual studio 2015\Projects\Do_An_wf\Do_An_wf\Do_An_wf.vcxproj
c:\Users\TungDZ\documents\visual studio 2015\Projects\Do_An_wf\Do_An_wf\x64\Debug\Do_An_wf.MyForm.resources
^c:\Users\TungDZ\documents\visual studio 2015\Projects\Do_An_wf\Do_An_wf\Do_An_wf.vcxproj
c:\Users\TungDZ\documents\visual studio 2015\Projects\Do_An_wf\Do_An_wf\x64\Debug\Do_An_wf.MyForm.resources
^c:\Users\TungDZ\documents\visual studio 2015\Projects\Do_An_wf\Do_An_wf\Do_An_wf.vcxproj
c:\Users\TungDZ\documents\visual studio 2015\Projects\Do_An_wf\Do_An_wf\x64\Debug\Do_An_wf.MyForm.resources
^c:\Users\TungDZ\documents\visual studio 2015\Projects\Do_An_wf\Do_An_wf\Do_An_wf.vcxproj
c:\Users\TungDZ\documents\visual studio 2015\Projects\Do_An_wf\Do_An_wf\x64\Debug\Do_An_wf.MyForm.resources
^c:\Users\TungDZ\documents\visual studio 2015\Projects\Do_An_wf\Do_An_wf\Do_An_wf.vcxproj
c:\Users\TungDZ\documents\visual studio 2015\Projects\Do_An_wf\Do_An_wf\x64\Debug\Do_An_wf.MyForm.resources
^c:\Users\TungDZ\documents\visual studio 2015\Projects\Do_An_wf\Do_An_wf\Do_An_wf.vcxproj
c:\Users\TungDZ\documents\visual studio 2015\Projects\Do_An_wf\Do_An_wf\x64\Debug\Do_An_wf.MyForm.resources
^c:\Users\TungDZ\documents\visual studio 2015\Projects\Do_An_wf\Do_An_wf\Do_An_wf.vcxproj
c:\Users\TungDZ\documents\visual studio 2015\Projects\Do_An_wf\Do_An_wf\x64\Debug\Do_An_wf.MyForm.resources
^c:\Users\TungDZ\documents\visual studio 2015\Projects\Do_An_wf\Do_An_wf\Do_An_wf.vcxproj
c:\Users\TungDZ\documents\visual studio 2015\Projects\Do_An_wf\Do_An_wf\x64\Debug\Do_An_wf.MyForm.resources
^c:\Users\TungDZ\documents\visual studio 2015\Projects\Do_An_wf\Do_An_wf\Do_An_wf.vcxproj
c:\Users\TungDZ\documents\visual studio 2015\Projects\Do_An_wf\Do_An_wf\x64\Debug\Do_An_wf.MyForm.resources
^c:\Users\TungDZ\documents\visual studio 2015\Projects\Do_An_wf\Do_An_wf\Do_An_wf.vcxproj
c:\Users\TungDZ\documents\visual studio 2015\Projects\Do_An_wf\Do_An_wf\x64\Debug\Do_An_wf.MyForm.resources
^c:\Users\TungDZ\documents\visual studio 2015\Projects\Do_An_wf\Do_An_wf\Do_An_wf.vcxproj
c:\Users\TungDZ\documents\visual studio 2015\Projects\Do_An_wf\Do_An_wf\x64\Debug\Do_An_wf.MyForm.resources
^c:\Users\TungDZ\documents\visual studio 2015\Projects\Do_An_wf\Do_An_wf\Do_An_wf.vcxproj
c:\Users\TungDZ\documents\visual studio 2015\Projects\Do_An_wf\Do_An_wf\x64\Debug\Do_An_wf.MyForm.resources
^c:\Users\TungDZ\documents\visual studio 2015\Projects\Do_An_wf\Do_An_wf\Do_An_wf.vcxproj
c:\Users\TungDZ\documents\visual studio 2015\Projects\Do_An_wf\Do_An_wf\x64\Debug\Do_An_wf.MyForm.resources
^c:\Users\TungDZ\documents\visual studio 2015\Projects\Do_An_wf\Do_An_wf\Do_An_wf.vcxproj
c:\Users\TungDZ\documents\visual studio 2015\Projects\Do_An_wf\Do_An_wf\x64\Debug\Do_An_wf.MyForm.resources
^c:\Users\TungDZ\documents\visual studio 2015\Projects\Do_An_wf\Do_An_wf\Do_An_wf.vcxproj
c:\Users\TungDZ\documents\visual studio 2015\Projects\Do_An_wf\Do_An_wf\x64\Debug\Do_An_wf.MyForm.resources
^c:\Users\TungDZ\documents\visual studio 2015\Projects\Do_An_wf\Do_An_wf\Do_An_wf.vcxproj
c:\Users\TungDZ\documents\visual studio 2015\Projects\Do_An_wf\Do_An_wf\x64\Debug\Do_An_wf.MyForm.resources
^c:\Users\TungDZ\documents\visual studio 2015\Projects\Do_An_wf\Do_An_wf\Do_An_wf.vcxproj
c:\Users\TungDZ\documents\visual studio 2015\Projects\Do_An_wf\Do_An_wf\x64\Debug\Do_An_wf.MyForm.resources
^c:\Users\TungDZ\documents\visual studio 2015\Projects\Do_An_wf\Do_An_wf\Do_An_wf.vcxproj
c:\Users\TungDZ\documents\visual studio 2015\Projects\Do_An_wf\Do_An_wf\x64\Debug\Do_An_wf.MyForm.resources
^c:\Users\TungDZ\documents\visual studio 2015\Projects\Do_An_wf\Do_An_wf\Do_An_wf.vcxproj
c:\Users\TungDZ\documents\visual studio 2015\Projects\Do_An_wf\Do_An_wf\x64\Debug\Do_An_wf.MyForm.resources
^c:\Users\TungDZ\documents\visual studio 2015\Projects\Do_An_wf\Do_An_wf\Do_An_wf.vcxproj
c:\Users\TungDZ\documents\visual studio 2015\Projects\Do_An_wf\Do_An_wf\x64\Debug\Do_An_wf.MyForm.resources
^c:\Users\TungDZ\documents\visual studio 2015\Projects\Do_An_wf\Do_An_wf\Do_An_wf.vcxproj
c:\Users\TungDZ\documents\visual studio 2015\Projects\Do_An_wf\Do_An_wf\x64\Debug\Do_An_wf.MyForm.resources
^c:\Users\TungDZ\documents\visual studio 2015\Projects\Do_An_wf\Do_An_wf\Do_An_wf.vcxproj
c:\Users\TungDZ\documents\visual studio 2015\Projects\Do_An_wf\Do_An_wf\x64\Debug\Do_An_wf.MyForm.resources
^c:\Users\TungDZ\documents\visual studio 2015\Projects\Do_An_wf\Do_An_wf\Do_An_wf.vcxproj
c:\Users\TungDZ\documents\visual studio 2015\Projects\Do_An_wf\Do_An_wf\x64\Debug\Do_An_wf.MyForm.resources
^c:\Users\TungDZ\documents\visual studio 2015\Projects\Do_An_wf\Do_An_wf\Do_An_wf.vcxproj
c:\Users\TungDZ\documents\visual studio 2015\Projects\Do_An_wf\Do_An_wf\x64\Debug\Do_An_wf.MyForm.resources
^c:\Users\TungDZ\documents\visual studio 2015\Projects\Do_An_wf\Do_An_wf\Do_An_wf.vcxproj
c:\Users\TungDZ\documents\visual studio 2015\Projects\Do_An_wf\Do_An_wf\x64\Debug\Do_An_wf.MyForm.resources
^c:\Users\TungDZ\documents\visual studio 2015\Projects\Do_An_wf\Do_An_wf\Do_An_wf.vcxproj
c:\Users\TungDZ\documents\visual studio 2015\Projects\Do_An_wf\Do_An_wf\x64\Debug\Do_An_wf.MyForm.resources
^c:\Users\TungDZ\documents\visual studio 2015\Projects\Do_An_wf\Do_An_wf\Do_An_wf.vcxproj
c:\Users\TungDZ\documents\visual studio 2015\Projects\Do_An_wf\Do_An_wf\x64\Debug\Do_An_wf.MyForm.resources
^c:\Users\TungDZ\documents\visual studio 2015\Projects\Do_An_wf\Do_An_wf\Do_An_wf.vcxproj
c:\Users\TungDZ\documents\visual studio 2015\Projects\Do_An_wf\Do_An_wf\x64\Debug\Do_An_wf.MyForm.resources
^c:\Users\TungDZ\documents\visual studio 2015\Projects\Do_An_wf\Do_An_wf\Do_An_wf.vcxproj
c:\Users\TungDZ\documents\visual studio 2015\Projects\Do_An_wf\Do_An_wf\x64\Debug\Do_An_wf.MyForm.resources
^c:\Users\TungDZ\documents\visual studio 2015\Projects\Do_An_wf\Do_An_wf\Do_An_wf.vcxproj
c:\Users\TungDZ\documents\visual studio 2015\Projects\Do_An_wf\Do_An_wf\x64\Debug\Do_An_wf.MyForm.resources
^c:\Users\TungDZ\documents\visual studio 2015\Projects\Do_An_wf\Do_An_wf\Do_An_wf.vcxproj
c:\Users\TungDZ\documents\visual studio 2015\Projects\Do_An_wf\Do_An_wf\x64\Debug\Do_An_wf.MyForm.resources
^c:\Users\TungDZ\documents\visual studio 2015\Projects\Do_An_wf\Do_An_wf\Do_An_wf.vcxproj
c:\Users\TungDZ\documents\visual studio 2015\Projects\Do_An_wf\Do_An_wf\x64\Debug\Do_An_wf.MyForm.resources
^c:\Users\TungDZ\documents\visual studio 2015\Projects\Do_An_wf\Do_An_wf\Do_An_wf.vcxproj
c:\Users\TungDZ\documents\visual studio 2015\Projects\Do_An_wf\Do_An_wf\x64\Debug\Do_An_wf.MyForm.resources
^c:\Users\TungDZ\documents\visual studio 2015\Projects\Do_An_wf\Do_An_wf\Do_An_wf.vcxproj
c:\Users\TungDZ\documents\visual studio 2015\Projects\Do_An_wf\Do_An_wf\x64\Debug\Do_An_wf.MyForm.resources
^c:\Users\TungDZ\documents\visual studio 2015\Projects\Do_An_wf\Do_An_wf\Do_An_wf.vcxproj
c:\Users\TungDZ\documents\visual studio 2015\Projects\Do_An_wf\Do_An_wf\x64\Debug\Do_An_wf.MyForm.resources
^c:\Users\TungDZ\documents\visual studio 2015\Projects\Do_An_wf\Do_An_wf\Do_An_wf.vcxproj
c:\Users\TungDZ\documents\visual studio 2015\Projects\Do_An_wf\Do_An_wf\x64\Debug\Do_An_wf.MyForm.resources
^c:\Users\TungDZ\documents\visual studio 2015\Projects\Do_An_wf\Do_An_wf\Do_An_wf.vcxproj
c:\Users\TungDZ\documents\visual studio 2015\Projects\Do_An_wf\Do_An_wf\x64\Debug\Do_An_wf.MyForm.resources
^c:\Users\TungDZ\documents\visual studio 2015\Projects\Do_An_wf\Do_An_wf\Do_An_wf.vcxproj
c:\Users\TungDZ\documents\visual studio 2015\Projects\Do_An_wf\Do_An_wf\x64\Debug\Do_An_wf.MyForm.resources
^c:\Users\TungDZ\documents\visual studio 2015\Projects\Do_An_wf\Do_An_wf\Do_An_wf.vcxproj
c:\Users\TungDZ\documents\visual studio 2015\Projects\Do_An_wf\Do_An_wf\x64\Debug\Do_An_wf.MyForm.resources
^c:\Users\TungDZ\documents\visual studio 2015\Projects\Do_An_wf\Do_An_wf\Do_An_wf.vcxproj
c:\Users\TungDZ\documents\visual studio 2015\Projects\Do_An_wf\Do_An_wf\x64\Debug\Do_An_wf.MyForm.resources
^c:\Users\TungDZ\documents\visual studio 2015\Projects\Do_An_wf\Do_An_wf\Do_An_wf.vcxproj
c:\Users\TungDZ\documents\visual studio 2015\Projects\Do_An_wf\Do_An_wf\x64\Debug\Do_An_wf.MyForm.resources
^C:\Users\TungDZ\documents\visual studio 2015\Projects\Do_An_wf\Do_An_wf\Do_An_wf.vcxproj
C:\Users\TungDZ\documents\visual studio 2015\Projects\Do_An_wf\Do_An_wf\x64\Debug\Do_An_wf.MyForm.resources
^C:\Users\TungDZ\documents\visual studio 2015\Projects\Do_An_wf\Do_An_wf\Do_An_wf.vcxproj
C:\Users\TungDZ\documents\visual studio 2015\Projects\Do_An_wf\Do_An_wf\x64\Debug\Do_An_wf.MyForm.resources
^C:\Users\TungDZ\documents\visual studio 2015\Projects\Do_An_wf\Do_An_wf\Do_An_wf.vcxproj
C:\Users\TungDZ\documents\visual studio 2015\Projects\Do_An_wf\Do_An_wf\x64\Debug\Do_An_wf.MyForm.resources
^C:\Users\TungDZ\documents\visual studio 2015\Projects\Do_An_wf\Do_An_wf\Do_An_wf.vcxproj
C:\Users\TungDZ\documents\visual studio 2015\Projects\Do_An_wf\Do_An_wf\x64\Debug\Do_An_wf.MyForm.resources
^C:\Users\TungDZ\documents\visual studio 2015\Projects\Do_An_wf\Do_An_wf\Do_An_wf.vcxproj
C:\Users\TungDZ\documents\visual studio 2015\Projects\Do_An_wf\Do_An_wf\x64\Debug\Do_An_wf.MyForm.resources
^C:\Users\TungDZ\documents\visual studio 2015\Projects\Do_An_wf\Do_An_wf\Do_An_wf.vcxproj
C:\Users\TungDZ\documents\visual studio 2015\Projects\Do_An_wf\Do_An_wf\x64\Debug\Do_An_wf.MyForm.resources
^C:\Users\TungDZ\documents\visual studio 2015\Projects\Do_An_wf\Do_An_wf\Do_An_wf.vcxproj
C:\Users\TungDZ\documents\visual studio 2015\Projects\Do_An_wf\Do_An_wf\x64\Debug\Do_An_wf.MyForm.resources
^C:\Users\TungDZ\documents\visual studio 2015\Projects\Do_An_wf\Do_An_wf\Do_An_wf.vcxproj
C:\Users\TungDZ\documents\visual studio 2015\Projects\Do_An_wf\Do_An_wf\x64\Debug\Do_An_wf.MyForm.resources
^C:\Users\TungDZ\documents\visual studio 2015\Projects\Do_An_wf\Do_An_wf\Do_An_wf.vcxproj
C:\Users\TungDZ\documents\visual studio 2015\Projects\Do_An_wf\Do_An_wf\x64\Debug\Do_An_wf.MyForm.resources
^C:\Users\TungDZ\documents\visual studio 2015\Projects\Do_An_wf\Do_An_wf\Do_An_wf.vcxproj
C:\Users\TungDZ\documents\visual studio 2015\Projects\Do_An_wf\Do_An_wf\x64\Debug\Do_An_wf.MyForm.resources
^C:\Users\TungDZ\documents\visual studio 2015\Projects\Do_An_wf\Do_An_wf\Do_An_wf.vcxproj
C:\Users\TungDZ\documents\visual studio 2015\Projects\Do_An_wf\Do_An_wf\x64\Debug\Do_An_wf.MyForm.resources
^C:\Users\TungDZ\documents\visual studio 2015\Projects\Do_An_wf\Do_An_wf\Do_An_wf.vcxproj
C:\Users\TungDZ\documents\visual studio 2015\Projects\Do_An_wf\Do_An_wf\x64\Debug\Do_An_wf.MyForm.resources
^C:\Users\TungDZ\documents\visual studio 2015\Projects\Do_An_wf\Do_An_wf\Do_An_wf.vcxproj
C:\Users\TungDZ\documents\visual studio 2015\Projects\Do_An_wf\Do_An_wf\x64\Debug\Do_An_wf.MyForm.resources
^C:\Users\TungDZ\documents\visual studio 2015\Projects\Do_An_wf\Do_An_wf\Do_An_wf.vcxproj
C:\Users\TungDZ\documents\visual studio 2015\Projects\Do_An_wf\Do_An_wf\x64\Debug\Do_An_wf.MyForm.resources
^C:\Users\TungDZ\documents\visual studio 2015\Projects\Do_An_wf\Do_An_wf\Do_An_wf.vcxproj
C:\Users\TungDZ\documents\visual studio 2015\Projects\Do_An_wf\Do_An_wf\x64\Debug\Do_An_wf.MyForm.resources
^C:\Users\TungDZ\documents\visual studio 2015\Projects\Do_An_wf\Do_An_wf\Do_An_wf.vcxproj
C:\Users\TungDZ\documents\visual studio 2015\Projects\Do_An_wf\Do_An_wf\x64\Debug\Do_An_wf.MyForm.resources
^C:\Users\TungDZ\documents\visual studio 2015\Projects\Do_An_wf\Do_An_wf\Do_An_wf.vcxproj
C:\Users\TungDZ\documents\visual studio 2015\Projects\Do_An_wf\Do_An_wf\x64\Debug\Do_An_wf.MyForm.resources
^C:\Users\TungDZ\documents\visual studio 2015\Projects\Do_An_wf\Do_An_wf\Do_An_wf.vcxproj
C:\Users\TungDZ\documents\visual studio 2015\Projects\Do_An_wf\Do_An_wf\x64\Debug\Do_An_wf.MyForm.resources
^C:\Users\TungDZ\documents\visual studio 2015\Projects\Do_An_wf\Do_An_wf\Do_An_wf.vcxproj
C:\Users\TungDZ\documents\visual studio 2015\Projects\Do_An_wf\Do_An_wf\x64\Debug\Do_An_wf.MyForm.resources
^C:\Users\TungDZ\documents\visual studio 2015\Projects\Do_An_wf\Do_An_wf\Do_An_wf.vcxproj
C:\Users\TungDZ\documents\visual studio 2015\Projects\Do_An_wf\Do_An_wf\x64\Debug\Do_An_wf.MyForm.resources
^C:\Users\TungDZ\documents\visual studio 2015\Projects\Do_An_wf\Do_An_wf\Do_An_wf.vcxproj
C:\Users\TungDZ\documents\visual studio 2015\Projects\Do_An_wf\Do_An_wf\x64\Debug\Do_An_wf.MyForm.resources
^C:\Users\TungDZ\documents\visual studio 2015\Projects\Do_An_wf\Do_An_wf\Do_An_wf.vcxproj
C:\Users\TungDZ\documents\visual studio 2015\Projects\Do_An_wf\Do_An_wf\x64\Debug\Do_An_wf.MyForm.resources
^C:\Users\TungDZ\documents\visual studio 2015\Projects\Do_An_wf\Do_An_wf\Do_An_wf.vcxproj
C:\Users\TungDZ\documents\visual studio 2015\Projects\Do_An_wf\Do_An_wf\x64\Debug\Do_An_wf.MyForm.resources
^C:\Users\TungDZ\documents\visual studio 2015\Projects\Do_An_wf\Do_An_wf\Do_An_wf.vcxproj
C:\Users\TungDZ\documents\visual studio 2015\Projects\Do_An_wf\Do_An_wf\x64\Debug\Do_An_wf.MyForm.resources
^C:\Users\TungDZ\documents\visual studio 2015\Projects\Do_An_wf\Do_An_wf\Do_An_wf.vcxproj
C:\Users\TungDZ\documents\visual studio 2015\Projects\Do_An_wf\Do_An_wf\x64\Debug\Do_An_wf.MyForm.resources
^C:\Users\TungDZ\documents\visual studio 2015\Projects\Do_An_wf\Do_An_wf\Do_An_wf.vcxproj
C:\Users\TungDZ\documents\visual studio 2015\Projects\Do_An_wf\Do_An_wf\x64\Debug\Do_An_wf.MyForm.resources
^C:\Users\TungDZ\documents\visual studio 2015\Projects\Do_An_wf\Do_An_wf\Do_An_wf.vcxproj
C:\Users\TungDZ\documents\visual studio 2015\Projects\Do_An_wf\Do_An_wf\x64\Debug\Do_An_wf.MyForm.resources
^C:\Users\TungDZ\documents\visual studio 2015\Projects\Do_An_wf\Do_An_wf\Do_An_wf.vcxproj
C:\Users\TungDZ\documents\visual studio 2015\Projects\Do_An_wf\Do_An_wf\x64\Debug\Do_An_wf.MyForm.resources
^C:\Users\TungDZ\documents\visual studio 2015\Projects\Do_An_wf\Do_An_wf\Do_An_wf.vcxproj
C:\Users\TungDZ\documents\visual studio 2015\Projects\Do_An_wf\Do_An_wf\x64\Debug\Do_An_wf.MyForm.resources
^C:\Users\TungDZ\documents\visual studio 2015\Projects\Do_An_wf\Do_An_wf\Do_An_wf.vcxproj
C:\Users\TungDZ\documents\visual studio 2015\Projects\Do_An_wf\Do_An_wf\x64\Debug\Do_An_wf.MyForm.resources
^C:\Users\TungDZ\documents\visual studio 2015\Projects\Do_An_wf\Do_An_wf\Do_An_wf.vcxproj
C:\Users\TungDZ\documents\visual studio 2015\Projects\Do_An_wf\Do_An_wf\x64\Debug\Do_An_wf.MyForm.resources
^C:\Users\TungDZ\documents\visual studio 2015\Projects\Do_An_wf\Do_An_wf\Do_An_wf.vcxproj
C:\Users\TungDZ\documents\visual studio 2015\Projects\Do_An_wf\Do_An_wf\x64\Debug\Do_An_wf.MyForm.resources
^C:\Users\TungDZ\documents\visual studio 2015\Projects\Do_An_wf\Do_An_wf\Do_An_wf.vcxproj
C:\Users\TungDZ\documents\visual studio 2015\Projects\Do_An_wf\Do_An_wf\x64\Debug\Do_An_wf.MyForm.resources
^C:\Users\TungDZ\documents\visual studio 2015\Projects\Do_An_wf\Do_An_wf\Do_An_wf.vcxproj
C:\Users\TungDZ\documents\visual studio 2015\Projects\Do_An_wf\Do_An_wf\x64\Debug\Do_An_wf.MyForm.resources
^C:\Users\TungDZ\documents\visual studio 2015\Projects\Do_An_wf\Do_An_wf\Do_An_wf.vcxproj
C:\Users\TungDZ\documents\visual studio 2015\Projects\Do_An_wf\Do_An_wf\x64\Debug\Do_An_wf.MyForm.resources
^C:\Users\TungDZ\documents\visual studio 2015\Projects\Do_An_wf\Do_An_wf\Do_An_wf.vcxproj
C:\Users\TungDZ\documents\visual studio 2015\Projects\Do_An_wf\Do_An_wf\x64\Debug\Do_An_wf.MyForm.resources
^C:\Users\TungDZ\documents\visual studio 2015\Projects\Do_An_wf\Do_An_wf\Do_An_wf.vcxproj
C:\Users\TungDZ\documents\visual studio 2015\Projects\Do_An_wf\Do_An_wf\x64\Debug\Do_An_wf.MyForm.resources
^C:\Users\TungDZ\documents\visual studio 2015\Projects\Do_An_wf\Do_An_wf\Do_An_wf.vcxproj
C:\Users\TungDZ\documents\visual studio 2015\Projects\Do_An_wf\Do_An_wf\x64\Debug\Do_An_wf.MyForm.resources
^C:\Users\TungDZ\documents\visual studio 2015\Projects\Do_An_wf\Do_An_wf\Do_An_wf.vcxproj
C:\Users\TungDZ\documents\visual studio 2015\Projects\Do_An_wf\Do_An_wf\x64\Debug\Do_An_wf.MyForm.resources
^C:\Users\TungDZ\documents\visual studio 2015\Projects\Do_An_wf\Do_An_wf\Do_An_wf.vcxproj
C:\Users\TungDZ\documents\visual studio 2015\Projects\Do_An_wf\Do_An_wf\x64\Debug\Do_An_wf.MyForm.resources
^C:\Users\TungDZ\documents\visual studio 2015\Projects\Do_An_wf\Do_An_wf\Do_An_wf.vcxproj
C:\Users\TungDZ\documents\visual studio 2015\Projects\Do_An_wf\Do_An_wf\x64\Debug\Do_An_wf.MyForm.resources
^C:\Users\TungDZ\documents\visual studio 2015\Projects\Do_An_wf\Do_An_wf\Do_An_wf.vcxproj
C:\Users\TungDZ\documents\visual studio 2015\Projects\Do_An_wf\Do_An_wf\x64\Debug\Do_An_wf.MyForm.resources
^C:\Users\TungDZ\documents\visual studio 2015\Projects\Do_An_wf\Do_An_wf\Do_An_wf.vcxproj
C:\Users\TungDZ\documents\visual studio 2015\Projects\Do_An_wf\Do_An_wf\x64\Debug\Do_An_wf.MyForm.resources
^C:\Users\TungDZ\documents\visual studio 2015\Projects\Do_An_wf\Do_An_wf\Do_An_wf.vcxproj
C:\Users\TungDZ\documents\visual studio 2015\Projects\Do_An_wf\Do_An_wf\x64\Debug\Do_An_wf.MyForm.resources
^C:\Users\TungDZ\Documents\Visual Studio 2015\Projects\Do_An_wf\Do_An_wf\Do_An_wf.vcxproj
C:\Users\TungDZ\Documents\Visual Studio 2015\Projects\Do_An_wf\Do_An_wf\x64\Debug\Do_An_wf.MyForm.resources
^C:\Users\TungDZ\Documents\Visual Studio 2015\Projects\Do_An_wf\Do_An_wf\Do_An_wf.vcxproj
C:\Users\TungDZ\Documents\Visual Studio 2015\Projects\Do_An_wf\Do_An_wf\x64\Debug\Do_An_wf.MyForm.resources
^C:\Users\TungDZ\Documents\Visual Studio 2015\Projects\Do_An_wf\Do_An_wf\Do_An_wf.vcxproj
C:\Users\TungDZ\Documents\Visual Studio 2015\Projects\Do_An_wf\Do_An_wf\x64\Debug\Do_An_wf.MyForm.resources
^C:\Users\TungDZ\Documents\Visual Studio 2015\Projects\Do_An_wf\Do_An_wf\Do_An_wf.vcxproj
C:\Users\TungDZ\Documents\Visual Studio 2015\Projects\Do_An_wf\Do_An_wf\x64\Debug\Do_An_wf.MyForm.resources
^C:\Users\TungDZ\Documents\Visual Studio 2015\Projects\Do_An_wf\Do_An_wf\Do_An_wf.vcxproj
C:\Users\TungDZ\Documents\Visual Studio 2015\Projects\Do_An_wf\Do_An_wf\x64\Debug\Do_An_wf.MyForm.resources
^C:\Users\TungDZ\Documents\Visual Studio 2015\Projects\Do_An_wf\Do_An_wf\Do_An_wf.vcxproj
C:\Users\TungDZ\Documents\Visual Studio 2015\Projects\Do_An_wf\Do_An_wf\x64\Debug\Do_An_wf.MyForm.resources
^C:\Users\TungDZ\Documents\Visual Studio 2015\Projects\Do_An_wf\Do_An_wf\Do_An_wf.vcxproj
C:\Users\TungDZ\Documents\Visual Studio 2015\Projects\Do_An_wf\Do_An_wf\x64\Debug\Do_An_wf.MyForm.resources
^C:\Users\TungDZ\Documents\Visual Studio 2015\Projects\Do_An_wf\Do_An_wf\Do_An_wf.vcxproj
C:\Users\TungDZ\Documents\Visual Studio 2015\Projects\Do_An_wf\Do_An_wf\x64\Debug\Do_An_wf.MyForm.resources
^C:\Users\TungDZ\Documents\Visual Studio 2015\Projects\Do_An_wf\Do_An_wf\Do_An_wf.vcxproj
C:\Users\TungDZ\Documents\Visual Studio 2015\Projects\Do_An_wf\Do_An_wf\x64\Debug\Do_An_wf.MyForm.resources
^C:\Users\TungDZ\Documents\Visual Studio 2015\Projects\Do_An_wf\Do_An_wf\Do_An_wf.vcxproj
C:\Users\TungDZ\Documents\Visual Studio 2015\Projects\Do_An_wf\Do_An_wf\x64\Debug\Do_An_wf.MyForm.resources
^C:\Users\TungDZ\Documents\Visual Studio 2015\Projects\Do_An_wf\Do_An_wf\Do_An_wf.vcxproj
C:\Users\TungDZ\Documents\Visual Studio 2015\Projects\Do_An_wf\Do_An_wf\x64\Debug\Do_An_wf.MyForm.resources
^C:\Users\TungDZ\Documents\Visual Studio 2015\Projects\Do_An_wf\Do_An_wf\Do_An_wf.vcxproj
C:\Users\TungDZ\Documents\Visual Studio 2015\Projects\Do_An_wf\Do_An_wf\x64\Debug\Do_An_wf.MyForm.resources
^C:\Users\TungDZ\Documents\Visual Studio 2015\Projects\Do_An_wf\Do_An_wf\Do_An_wf.vcxproj
C:\Users\TungDZ\Documents\Visual Studio 2015\Projects\Do_An_wf\Do_An_wf\x64\Debug\Do_An_wf.MyForm.resources
^C:\Users\TungDZ\Documents\Visual Studio 2015\Projects\Do_An_wf\Do_An_wf\Do_An_wf.vcxproj
C:\Users\TungDZ\Documents\Visual Studio 2015\Projects\Do_An_wf\Do_An_wf\x64\Debug\Do_An_wf.MyForm.resources
^C:\Users\TungDZ\Documents\Visual Studio 2015\Projects\Do_An_wf\Do_An_wf\Do_An_wf.vcxproj
C:\Users\TungDZ\Documents\Visual Studio 2015\Projects\Do_An_wf\Do_An_wf\x64\Debug\Do_An_wf.MyForm.resources
^C:\Users\TungDZ\Documents\Visual Studio 2015\Projects\Do_An_wf\Do_An_wf\Do_An_wf.vcxproj
C:\Users\TungDZ\Documents\Visual Studio 2015\Projects\Do_An_wf\Do_An_wf\x64\Debug\Do_An_wf.MyForm.resources
^C:\Users\TungDZ\Documents\Visual Studio 2015\Projects\Do_An_wf\Do_An_wf\Do_An_wf.vcxproj
C:\Users\TungDZ\Documents\Visual Studio 2015\Projects\Do_An_wf\Do_An_wf\x64\Debug\Do_An_wf.MyForm.resources
^C:\Users\TungDZ\Documents\Visual Studio 2015\Projects\Do_An_wf\Do_An_wf\Do_An_wf.vcxproj
C:\Users\TungDZ\Documents\Visual Studio 2015\Projects\Do_An_wf\Do_An_wf\x64\Debug\Do_An_wf.MyForm.resources
^C:\Users\TungDZ\Documents\Visual Studio 2015\Projects\Do_An_wf\Do_An_wf\Do_An_wf.vcxproj
C:\Users\TungDZ\Documents\Visual Studio 2015\Projects\Do_An_wf\Do_An_wf\x64\Debug\Do_An_wf.MyForm.resources
^C:\Users\TungDZ\Documents\Visual Studio 2015\Projects\Do_An_wf\Do_An_wf\Do_An_wf.vcxproj
C:\Users\TungDZ\Documents\Visual Studio 2015\Projects\Do_An_wf\Do_An_wf\x64\Debug\Do_An_wf.MyForm.resources
^C:\Users\TungDZ\Documents\Visual Studio 2015\Projects\Do_An_wf\Do_An_wf\Do_An_wf.vcxproj
C:\Users\TungDZ\Documents\Visual Studio 2015\Projects\Do_An_wf\Do_An_wf\x64\Debug\Do_An_wf.MyForm.resources
^C:\Users\TungDZ\Documents\Visual Studio 2015\Projects\Do_An_wf\Do_An_wf\Do_An_wf.vcxproj
C:\Users\TungDZ\Documents\Visual Studio 2015\Projects\Do_An_wf\Do_An_wf\x64\Debug\Do_An_wf.MyForm.resources
^C:\Users\TungDZ\Documents\Visual Studio 2015\Projects\Do_An_wf\Do_An_wf\Do_An_wf.vcxproj
C:\Users\TungDZ\Documents\Visual Studio 2015\Projects\Do_An_wf\Do_An_wf\x64\Debug\Do_An_wf.MyForm.resources
^C:\Users\TungDZ\Documents\Visual Studio 2015\Projects\Do_An_wf\Do_An_wf\Do_An_wf.vcxproj
C:\Users\TungDZ\Documents\Visual Studio 2015\Projects\Do_An_wf\Do_An_wf\x64\Debug\Do_An_wf.MyForm.resources
^C:\Users\TungDZ\Documents\Visual Studio 2015\Projects\Do_An_wf\Do_An_wf\Do_An_wf.vcxproj
C:\Users\TungDZ\Documents\Visual Studio 2015\Projects\Do_An_wf\Do_An_wf\x64\Debug\Do_An_wf.MyForm.resources
^C:\Users\TungDZ\Documents\Visual Studio 2015\Projects\Do_An_wf\Do_An_wf\Do_An_wf.vcxproj
C:\Users\TungDZ\Documents\Visual Studio 2015\Projects\Do_An_wf\Do_An_wf\x64\Debug\Do_An_wf.MyForm.resources
^C:\Users\TungDZ\Documents\Visual Studio 2015\Projects\Do_An_wf\Do_An_wf\Do_An_wf.vcxproj
C:\Users\TungDZ\Documents\Visual Studio 2015\Projects\Do_An_wf\Do_An_wf\x64\Debug\Do_An_wf.MyForm.resources
^C:\Users\TungDZ\Documents\Visual Studio 2015\Projects\Do_An_wf\Do_An_wf\Do_An_wf.vcxproj
C:\Users\TungDZ\Documents\Visual Studio 2015\Projects\Do_An_wf\Do_An_wf\x64\Debug\Do_An_wf.MyForm.resources
^C:\Users\TungDZ\Documents\Visual Studio 2015\Projects\Do_An_wf\Do_An_wf\Do_An_wf.vcxproj
C:\Users\TungDZ\Documents\Visual Studio 2015\Projects\Do_An_wf\Do_An_wf\x64\Debug\Do_An_wf.MyForm.resources
^C:\Users\TungDZ\Documents\Visual Studio 2015\Projects\Do_An_wf\Do_An_wf\Do_An_wf.vcxproj
C:\Users\TungDZ\Documents\Visual Studio 2015\Projects\Do_An_wf\Do_An_wf\x64\Debug\Do_An_wf.MyForm.resources
^C:\Users\TungDZ\Documents\Visual Studio 2015\Projects\Do_An_wf\Do_An_wf\Do_An_wf.vcxproj
C:\Users\TungDZ\Documents\Visual Studio 2015\Projects\Do_An_wf\Do_An_wf\x64\Debug\Do_An_wf.MyForm.resources
^C:\Users\TungDZ\Documents\Visual Studio 2015\Projects\Do_An_wf\Do_An_wf\Do_An_wf.vcxproj
C:\Users\TungDZ\Documents\Visual Studio 2015\Projects\Do_An_wf\Do_An_wf\x64\Debug\Do_An_wf.MyForm.resources
^C:\Users\TungDZ\Documents\Visual Studio 2015\Projects\Do_An_wf\Do_An_wf\Do_An_wf.vcxproj
C:\Users\TungDZ\Documents\Visual Studio 2015\Projects\Do_An_wf\Do_An_wf\x64\Debug\Do_An_wf.MyForm.resources
^C:\Users\TungDZ\Documents\Visual Studio 2015\Projects\Do_An_wf\Do_An_wf\Do_An_wf.vcxproj
C:\Users\TungDZ\Documents\Visual Studio 2015\Projects\Do_An_wf\Do_An_wf\x64\Debug\Do_An_wf.MyForm.resources
^C:\Users\TungDZ\Documents\Visual Studio 2015\Projects\Do_An_wf\Do_An_wf\Do_An_wf.vcxproj
C:\Users\TungDZ\Documents\Visual Studio 2015\Projects\Do_An_wf\Do_An_wf\x64\Debug\Do_An_wf.MyForm.resources
^C:\Users\TungDZ\Documents\Visual Studio 2015\Projects\Do_An_wf\Do_An_wf\Do_An_wf.vcxproj
C:\Users\TungDZ\Documents\Visual Studio 2015\Projects\Do_An_wf\Do_An_wf\x64\Debug\Do_An_wf.MyForm.resources
^C:\Users\TungDZ\Documents\Visual Studio 2015\Projects\Do_An_wf\Do_An_wf\Do_An_wf.vcxproj
C:\Users\TungDZ\Documents\Visual Studio 2015\Projects\Do_An_wf\Do_An_wf\x64\Debug\Do_An_wf.MyForm.resources
^C:\Users\TungDZ\Documents\Visual Studio 2015\Projects\Do_An_wf\Do_An_wf\Do_An_wf.vcxproj
C:\Users\TungDZ\Documents\Visual Studio 2015\Projects\Do_An_wf\Do_An_wf\x64\Debug\Do_An_wf.MyForm.resources
^C:\Users\TungDZ\Documents\Visual Studio 2015\Projects\Do_An_wf\Do_An_wf\Do_An_wf.vcxproj
C:\Users\TungDZ\Documents\Visual Studio 2015\Projects\Do_An_wf\Do_An_wf\x64\Debug\Do_An_wf.MyForm.resources
^C:\Users\TungDZ\Documents\Visual Studio 2015\Projects\Do_An_wf\Do_An_wf\Do_An_wf.vcxproj
C:\Users\TungDZ\Documents\Visual Studio 2015\Projects\Do_An_wf\Do_An_wf\x64\Debug\Do_An_wf.MyForm.resources
^C:\Users\TungDZ\Documents\Visual Studio 2015\Projects\Do_An_wf\Do_An_wf\Do_An_wf.vcxproj
C:\Users\TungDZ\Documents\Visual Studio 2015\Projects\Do_An_wf\Do_An_wf\x64\Debug\Do_An_wf.MyForm.resources
^C:\Users\TungDZ\Documents\Visual Studio 2015\Projects\Do_An_wf\Do_An_wf\Do_An_wf.vcxproj
C:\Users\TungDZ\Documents\Visual Studio 2015\Projects\Do_An_wf\Do_An_wf\x64\Debug\Do_An_wf.MyForm.resources
^C:\Users\TungDZ\Documents\Visual Studio 2015\Projects\Do_An_wf\Do_An_wf\Do_An_wf.vcxproj
C:\Users\TungDZ\Documents\Visual Studio 2015\Projects\Do_An_wf\Do_An_wf\x64\Debug\Do_An_wf.MyForm.resources
^C:\Users\TungDZ\Documents\Visual Studio 2015\Projects\Do_An_wf\Do_An_wf\Do_An_wf.vcxproj
C:\Users\TungDZ\Documents\Visual Studio 2015\Projects\Do_An_wf\Do_An_wf\x64\Debug\Do_An_wf.MyForm.resources
^C:\Users\TungDZ\Documents\Visual Studio 2015\Projects\Do_An_wf\Do_An_wf\Do_An_wf.vcxproj
C:\Users\TungDZ\Documents\Visual Studio 2015\Projects\Do_An_wf\Do_An_wf\x64\Debug\Do_An_wf.MyForm.resources
^C:\Users\TungDZ\Documents\Visual Studio 2015\Projects\Do_An_wf\Do_An_wf\Do_An_wf.vcxproj
C:\Users\TungDZ\Documents\Visual Studio 2015\Projects\Do_An_wf\Do_An_wf\x64\Debug\Do_An_wf.MyForm.resources
^C:\Users\TungDZ\Documents\Visual Studio 2015\Projects\Do_An_wf\Do_An_wf\Do_An_wf.vcxproj
C:\Users\TungDZ\Documents\Visual Studio 2015\Projects\Do_An_wf\Do_An_wf\x64\Debug\Do_An_wf.MyForm.resources
^C:\Users\TungDZ\Documents\Visual Studio 2015\Projects\Do_An_wf\Do_An_wf\Do_An_wf.vcxproj
C:\Users\TungDZ\Documents\Visual Studio 2015\Projects\Do_An_wf\Do_An_wf\x64\Debug\Do_An_wf.MyForm.resources
^C:\Users\TungDZ\Documents\Visual Studio 2015\Projects\Do_An_wf\Do_An_wf\Do_An_wf.vcxproj
C:\Users\TungDZ\Documents\Visual Studio 2015\Projects\Do_An_wf\Do_An_wf\x64\Debug\Do_An_wf.MyForm.resources
^C:\Users\TungDZ\Documents\Visual Studio 2015\Projects\Do_An_wf\Do_An_wf\Do_An_wf.vcxproj
C:\Users\TungDZ\Documents\Visual Studio 2015\Projects\Do_An_wf\Do_An_wf\x64\Debug\Do_An_wf.MyForm.resources
^C:\Users\TungDZ\Documents\Visual Studio 2015\Projects\Do_An_wf\Do_An_wf\Do_An_wf.vcxproj
C:\Users\TungDZ\Documents\Visual Studio 2015\Projects\Do_An_wf\Do_An_wf\x64\Debug\Do_An_wf.MyForm.resources
^C:\Users\TungDZ\Documents\Visual Studio 2015\Projects\Do_An_wf\Do_An_wf\Do_An_wf.vcxproj
C:\Users\TungDZ\Documents\Visual Studio 2015\Projects\Do_An_wf\Do_An_wf\x64\Debug\Do_An_wf.MyForm.resources
^C:\Users\TungDZ\Documents\Visual Studio 2015\Projects\Do_An_wf\Do_An_wf\Do_An_wf.vcxproj
C:\Users\TungDZ\Documents\Visual Studio 2015\Projects\Do_An_wf\Do_An_wf\x64\Debug\Do_An_wf.MyForm.resources
^C:\Users\TungDZ\documents\visual studio 2015\Projects\Do_An_wf\Do_An_wf\Do_An_wf.vcxproj
C:\Users\TungDZ\documents\visual studio 2015\Projects\Do_An_wf\Do_An_wf\x64\Debug\Do_An_wf.MyForm.resources
^C:\Users\TungDZ\documents\visual studio 2015\Projects\Do_An_wf\Do_An_wf\Do_An_wf.vcxproj
C:\Users\TungDZ\documents\visual studio 2015\Projects\Do_An_wf\Do_An_wf\x64\Debug\Do_An_wf.MyForm.resources
^C:\Users\TungDZ\Documents\Visual Studio 2015\Projects\Do_An_wf\Do_An_wf\Do_An_wf.vcxproj
C:\Users\TungDZ\Documents\Visual Studio 2015\Projects\Do_An_wf\Do_An_wf\x64\Debug\Do_An_wf.MyForm.resources
^C:\Users\TungDZ\Documents\Visual Studio 2015\Projects\Do_An_wf\Do_An_wf\Do_An_wf.vcxproj
C:\Users\TungDZ\Documents\Visual Studio 2015\Projects\Do_An_wf\Do_An_wf\x64\Debug\Do_An_wf.MyForm.resources
^C:\Users\TungDZ\Documents\Visual Studio 2015\Projects\Do_An_wf\Do_An_wf\Do_An_wf.vcxproj
C:\Users\TungDZ\Documents\Visual Studio 2015\Projects\Do_An_wf\Do_An_wf\x64\Debug\Do_An_wf.MyForm.resources
^C:\Users\TungDZ\Documents\Visual Studio 2015\Projects\Do_An_wf\Do_An_wf\Do_An_wf.vcxproj
C:\Users\TungDZ\Documents\Visual Studio 2015\Projects\Do_An_wf\Do_An_wf\x64\Debug\Do_An_wf.MyForm.resources
^C:\Users\TungDZ\Documents\Visual Studio 2015\Projects\Do_An_wf\Do_An_wf\Do_An_wf.vcxproj
C:\Users\TungDZ\Documents\Visual Studio 2015\Projects\Do_An_wf\Do_An_wf\x64\Debug\Do_An_wf.MyForm.resources
^C:\Users\TungDZ\Documents\Visual Studio 2015\Projects\Do_An_wf\Do_An_wf\Do_An_wf.vcxproj
C:\Users\TungDZ\Documents\Visual Studio 2015\Projects\Do_An_wf\Do_An_wf\x64\Debug\Do_An_wf.MyForm.resources
^C:\Users\TungDZ\Documents\Visual Studio 2015\Projects\Do_An_wf\Do_An_wf\Do_An_wf.vcxproj
C:\Users\TungDZ\Documents\Visual Studio 2015\Projects\Do_An_wf\Do_An_wf\x64\Debug\Do_An_wf.MyForm.resources
^C:\Users\TungDZ\Documents\Visual Studio 2015\Projects\Do_An_wf\Do_An_wf\Do_An_wf.vcxproj
C:\Users\TungDZ\Documents\Visual Studio 2015\Projects\Do_An_wf\Do_An_wf\x64\Debug\Do_An_wf.MyForm.resources
^C:\Users\TungDZ\Documents\Visual Studio 2015\Projects\Do_An_wf\Do_An_wf\Do_An_wf.vcxproj
C:\Users\TungDZ\Documents\Visual Studio 2015\Projects\Do_An_wf\Do_An_wf\x64\Debug\Do_An_wf.MyForm.resources
^C:\Users\TungDZ\Documents\Visual Studio 2015\Projects\Do_An_wf\Do_An_wf\Do_An_wf.vcxproj
C:\Users\TungDZ\Documents\Visual Studio 2015\Projects\Do_An_wf\Do_An_wf\x64\Debug\Do_An_wf.MyForm.resources
^C:\Users\TungDZ\Documents\Visual Studio 2015\Projects\Do_An_wf\Do_An_wf\Do_An_wf.vcxproj
C:\Users\TungDZ\Documents\Visual Studio 2015\Projects\Do_An_wf\Do_An_wf\x64\Debug\Do_An_wf.MyForm.resources
